#,Customer Name,Phone No,Email,Occupation,Birth Date,Anniversary,Address
1,prajakta ubarhande,7972395219,prajakta.ecorise@gmail.com,Testing,14/05/1995,14/05/2020,karvenagar pune
2,sneha patil,8084677807,sneha.ecorise@gmail.com,developer,13/05/1995,15/05/2021,pune
